…
dataset?

``` r
df_q0 <-
  ls(gapminder)
df_q0
```

    ## [1] "continent" "country"   "gdpPercap" "lifeExp"   "pop"       "year"

``` r
gapminder
```

    ## # A tibble: 1,704 × 6
    ##    country     continent  year lifeExp      pop gdpPercap
    ##    <fct>       <fct>     <int>   <dbl>    <int>     <dbl>
    ##  1 Afghanistan Asia       1952    28.8  8425333      779.
    ##  2 Afghanistan Asia       1957    30.3  9240934      821.
    ##  3 Afghanistan Asia       1962    32.0 10267083      853.
    ##  4 Afghanistan Asia       1967    34.0 11537966      836.
    ##  5 Afghanistan Asia       1972    36.1 13079460      740.
    ##  6 Afghanistan Asia       1977    38.4 14880372      786.
    ##  7 Afghanistan Asia       1982    39.9 12881816      978.
    ##  8 Afghanistan Asia       1987    40.8 13867957      852.
    ##  9 Afghanistan Asia       1992    41.7 16317921      649.
    ## 10 Afghanistan Asia       1997    41.8 22227415      635.
    ## # … with 1,694 more rows
…
``` r
second_european_country <-
  gapminder %>%
  filter(continent == "Europe" & year == 1952) %>%
  arrange(desc(gdpPercap))
second_european_country
```

    ## # A tibble: 30 × 6
    ##    country        continent  year lifeExp      pop gdpPercap
    ##    <fct>          <fct>     <int>   <dbl>    <int>     <dbl>
    ##  1 Switzerland    Europe     1952    69.6  4815000    14734.
    ##  2 Norway         Europe     1952    72.7  3327728    10095.
    ##  3 United Kingdom Europe     1952    69.2 50430000     9980.
    ##  4 Denmark        Europe     1952    70.8  4334000     9692.
    ##  5 Netherlands    Europe     1952    72.1 10381988     8942.
    ##  6 Sweden         Europe     1952    71.9  7124673     8528.
    ##  7 Belgium        Europe     1952    68    8730405     8343.
    ##  8 Iceland        Europe     1952    72.5   147962     7268.
    ##  9 Germany        Europe     1952    67.5 69145952     7144.
    ## 10 France         Europe     1952    67.4 42459667     7030.
    ## # … with 20 more rows
…
