…
    ## Warning: The `value` argument of `names<-` can't be empty as of tibble 3.0.0.
    ## ℹ Column 7 must be named.

    ## Warning: The `value` argument of `names<-` must be a character vector as of tibble
    ## 3.0.0.

``` r
df_pop <- df_pop[-1,]
df_pop
```

    ## # A tibble: 3,220 × 7
    ##    Geography      `Geographic Area Name`   Estim…¹ Annot…² Margi…³ Annot…⁴ `NA` 
    ##    <chr>          <chr>                    <chr>   <chr>   <chr>   <chr>   <lgl>
    ##  1 0500000US01001 Autauga County, Alabama  55200   null    *****   *****   NA   
    ##  2 0500000US01003 Baldwin County, Alabama  208107  null    *****   *****   NA   
    ##  3 0500000US01005 Barbour County, Alabama  25782   null    *****   *****   NA   
    ##  4 0500000US01007 Bibb County, Alabama     22527   null    *****   *****   NA   
    ##  5 0500000US01009 Blount County, Alabama   57645   null    *****   *****   NA   
    ##  6 0500000US01011 Bullock County, Alabama  10352   null    *****   *****   NA   
    ##  7 0500000US01013 Butler County, Alabama   20025   null    *****   *****   NA   
    ##  8 0500000US01015 Calhoun County, Alabama  115098  null    *****   *****   NA   
    ##  9 0500000US01017 Chambers County, Alabama 33826   null    *****   *****   NA   
    ## 10 0500000US01019 Cherokee County, Alabama 25853   null    *****   *****   NA   
    ## # … with 3,210 more rows, and abbreviated variable names ¹​`Estimate!!Total`,
    ## #   ²​`Annotation of Estimate!!Total`, ³​`Margin of Error!!Total`,
    ## #   ⁴​`Annotation of Margin of Error!!Total`
…
    ## [1] "Very good!"

### **q4** Join `df_covid` with `df_q3` by the `fips` column. Use the proper type of join to preserve *only* the rows in `df_covid`.

``` r
## TASK: Join df_covid and df_q3 by fips.
df_q4 <- 
  df_covid %>%
  left_join(., df_q3, by = "fips")
df_q4
```

    ## # A tibble: 2,502,832 × 13
    ##    date  county state fips  cases deaths Geogr…¹ Geogr…² Estim…³ Annot…⁴ Margi…⁵
    ##    <chr> <chr>  <chr> <chr> <dbl>  <dbl> <chr>   <chr>   <chr>   <chr>   <chr>  
    ##  1 2020… Snoho… Wash… 53061     1      0 050000… Snohom… 786620  null    *****  
    ##  2 2020… Snoho… Wash… 53061     1      0 050000… Snohom… 786620  null    *****  
    ##  3 2020… Snoho… Wash… 53061     1      0 050000… Snohom… 786620  null    *****  
    ##  4 2020… Cook   Illi… 17031     1      0 050000… Cook C… 5223719 null    *****  
    ##  5 2020… Snoho… Wash… 53061     1      0 050000… Snohom… 786620  null    *****  
    ##  6 2020… Orange Cali… 06059     1      0 050000… Orange… 3164182 null    *****  
    ##  7 2020… Cook   Illi… 17031     1      0 050000… Cook C… 5223719 null    *****  
    ##  8 2020… Snoho… Wash… 53061     1      0 050000… Snohom… 786620  null    *****  
    ##  9 2020… Maric… Ariz… 04013     1      0 050000… Marico… 4253913 null    *****  
    ## 10 2020… Los A… Cali… 06037     1      0 050000… Los An… 100980… null    *****  
    ## # … with 2,502,822 more rows, 2 more variables:
    ## #   `Annotation of Margin of Error!!Total` <chr>, `NA` <lgl>, and abbreviated
    ## #   variable names ¹​Geography, ²​`Geographic Area Name`, ³​`Estimate!!Total`,
    ## #   ⁴​`Annotation of Estimate!!Total`, ⁵​`Margin of Error!!Total`
…
``` r
## TASK: Normalize cases and deaths
df_normalized <-
  df_data %>%
  mutate(
    date = lubridate::ymd(date),
    population = as.double(population)
  ) %>% 
  mutate(cases_per100k = (cases / population) * 100000) %>%
  mutate(deaths_per100k = (deaths / population) * 100000)
df_normalized
```

    ## # A tibble: 2,502,832 × 9
    ##    date       county      state      fips  cases deaths popula…¹ cases…² death…³
    ##    <date>     <chr>       <chr>      <chr> <dbl>  <dbl>    <dbl>   <dbl>   <dbl>
    ##  1 2020-01-21 Snohomish   Washington 53061     1      0   786620 0.127         0
    ##  2 2020-01-22 Snohomish   Washington 53061     1      0   786620 0.127         0
    ##  3 2020-01-23 Snohomish   Washington 53061     1      0   786620 0.127         0
    ##  4 2020-01-24 Cook        Illinois   17031     1      0  5223719 0.0191        0
    ##  5 2020-01-24 Snohomish   Washington 53061     1      0   786620 0.127         0
    ##  6 2020-01-25 Orange      California 06059     1      0  3164182 0.0316        0
    ##  7 2020-01-25 Cook        Illinois   17031     1      0  5223719 0.0191        0
    ##  8 2020-01-25 Snohomish   Washington 53061     1      0   786620 0.127         0
    ##  9 2020-01-26 Maricopa    Arizona    04013     1      0  4253913 0.0235        0
    ## 10 2020-01-26 Los Angeles California 06037     1      0 10098052 0.00990       0
    ## # … with 2,502,822 more rows, and abbreviated variable names ¹​population,
    ## #   ²​cases_per100k, ³​deaths_per100k
…
<!-- -->

``` r
df_report_start <-
  df_normalized %>%
  group_by(county) %>%
  mutate(report_start = min(date)) %>%
  filter(date == report_start) %>%
  mutate(state_abbreviate = state.abb[match(state,state.name)]) %>%
  drop_na(state_abbreviate)
df_report_start
```

    ## # A tibble: 1,866 × 11
    ## # Groups:   county [1,850]
    ##    date       county state fips  cases deaths popul…¹ cases…² death…³ report_s…⁴
    ##    <date>     <chr>  <chr> <chr> <dbl>  <dbl>   <dbl>   <dbl>   <dbl> <date>    
    ##  1 2020-01-21 Snoho… Wash… 53061     1      0  7.87e5 0.127         0 2020-01-21
    ##  2 2020-01-24 Cook   Illi… 17031     1      0  5.22e6 0.0191        0 2020-01-24
    ##  3 2020-01-25 Orange Cali… 06059     1      0  3.16e6 0.0316        0 2020-01-25
    ##  4 2020-01-26 Maric… Ariz… 04013     1      0  4.25e6 0.0235        0 2020-01-26
    ##  5 2020-01-26 Los A… Cali… 06037     1      0  1.01e7 0.00990       0 2020-01-26
    ##  6 2020-01-31 Santa… Cali… 06085     1      0  1.92e6 0.0520        0 2020-01-31
    ##  7 2020-02-01 Suffo… Mass… 25025     1      0  7.92e5 0.126         0 2020-02-01
    ##  8 2020-02-02 San F… Cali… 06075     2      0  8.70e5 0.230         0 2020-02-02
    ##  9 2020-02-05 Dane   Wisc… 55025     1      0  5.30e5 0.189         0 2020-02-05
    ## 10 2020-02-10 San D… Cali… 06073     1      0  3.30e6 0.0303        0 2020-02-10
    ## # … with 1,856 more rows, 1 more variable: state_abbreviate <chr>, and
    ## #   abbreviated variable names ¹​population, ²​cases_per100k, ³​deaths_per100k,
    ## #   ⁴​report_start
…
