…
``` r
df_sat
```

    ## # A tibble: 105 × 5
    ##    high_GPA math_SAT verb_SAT comp_GPA univ_GPA
    ##       <dbl>    <dbl>    <dbl>    <dbl>    <dbl>
    ##  1     3.45      643      589     3.76     3.52
    ##  2     2.78      558      512     2.87     2.91
    ##  3     2.52      583      503     2.54     2.4 
    ##  4     3.67      685      602     3.83     3.47
    ##  5     3.24      592      538     3.29     3.47
    ##  6     2.1       562      486     2.64     2.37
    ##  7     2.82      573      548     2.86     2.4 
    ##  8     2.36      559      536     2.03     2.24
    ##  9     2.42      552      583     2.81     3.02
    ## 10     3.51      617      591     3.41     3.32
    ## # … with 95 more rows
…
To simplify the analysis, let’s look at a composite SAT score:

``` r
## NOTE: No need to edit this
df_composite <-
  df_sat %>%
  mutate(both_SAT = math_SAT + verb_SAT)
df_composite
```

    ## # A tibble: 105 × 6
    ##    high_GPA math_SAT verb_SAT comp_GPA univ_GPA both_SAT
    ##       <dbl>    <dbl>    <dbl>    <dbl>    <dbl>    <dbl>
    ##  1     3.45      643      589     3.76     3.52     1232
    ##  2     2.78      558      512     2.87     2.91     1070
    ##  3     2.52      583      503     2.54     2.4      1086
    ##  4     3.67      685      602     3.83     3.47     1287
    ##  5     3.24      592      538     3.29     3.47     1130
    ##  6     2.1       562      486     2.64     2.37     1048
    ##  7     2.82      573      548     2.86     2.4      1121
    ##  8     2.36      559      536     2.03     2.24     1095
    ##  9     2.42      552      583     2.81     3.02     1135
    ## 10     3.51      617      591     3.41     3.32     1208
    ## # … with 95 more rows
…
