…
``` r
df_psaap
```

    ## # A tibble: 140 × 22
    ##        x   idx     L      W   U_0    N_p    k_f   T_f rho_f    mu_f  lam_f  C_fp
    ##    <dbl> <dbl> <dbl>  <dbl> <dbl>  <dbl>  <dbl> <dbl> <dbl>   <dbl>  <dbl> <dbl>
    ##  1  0.25     1 0.190 0.0342  1.86 1.60e6 0.0832  300. 1.16  1.52e-5 0.0316 1062.
    ##  2  0.25     2 0.151 0.0464  2.23 2.22e6 0.111   243. 1.13  1.84e-5 0.0259 1114.
    ##  3  0.25     3 0.169 0.0398  2.04 1.71e6 0.0867  290. 1.10  2.18e-5 0.0349  952.
    ##  4  0.25     4 0.135 0.0325  2.45 2.08e6 0.121   358. 1.23  2.23e-5 0.0370  998.
    ##  5  0.25     5 0.201 0.0441  1.70 1.95e6 0.0904  252. 1.44  2.28e-5 0.0356  937.
    ##  6  0.25     6 0.160 0.0379  1.96 1.82e6 0.0798  280. 0.964 2.13e-5 0.0249 1224.
    ##  7  0.25     7 0.179 0.0360  2.36 2.36e6 0.102   261. 1.40  2.03e-5 0.0322  813.
    ##  8  0.25     8 0.143 0.0488  2.15 1.57e6 0.0982  270. 1.02  1.98e-5 0.0329  967.
    ##  9  0.25     9 0.184 0.0419  2.58 2.18e6 0.107   322. 1.07  1.56e-5 0.0292 1186.
    ## 10  0.25    10 0.147 0.0336  1.79 1.68e6 0.0942  333. 1.04  1.80e-5 0.0280  826.
    ## # … with 130 more rows, and 10 more variables: rho_p <dbl>, d_p <dbl>,
    ## #   C_pv <dbl>, h <dbl>, I_0 <dbl>, eps_p <dbl>, avg_q <dbl>, avg_T <dbl>,
    ## #   rms_T <dbl>, T_norm <dbl>
…
``` r
int_w_uncertainties
```

    ## # A tibble: 60 × 25
    ##        x   idx     L      W   U_0    N_p    k_f   T_f rho_f    mu_f  lam_f  C_fp
    ##    <dbl> <dbl> <dbl>  <dbl> <dbl>  <dbl>  <dbl> <dbl> <dbl>   <dbl>  <dbl> <dbl>
    ##  1  0.25    21 0.198 0.0405  1.89 2.26e6 0.0939  269. 1.23  1.85e-5 0.0363 1263.
    ##  2  0.25    22 0.158 0.0331  2.27 1.56e6 0.115   320. 1.45  2.19e-5 0.0342  982.
    ##  3  0.25    23 0.177 0.0448  2.08 2.15e6 0.0851  332. 0.968 2.24e-5 0.0270  908.
    ##  4  0.25    24 0.141 0.0385  2.49 1.66e6 0.114   344. 1.41  2.29e-5 0.0321 1243.
    ##  5  0.25    25 0.182 0.0366  1.73 2.02e6 0.0887  368. 1.02  2.13e-5 0.0263  866.
    ##  6  0.25    26 0.145 0.0496  1.85 1.89e6 0.124   309. 1.08  2.03e-5 0.0354 1046.
    ##  7  0.25    27 0.162 0.0426  2.22 1.77e6 0.0925  302. 1.05  1.99e-5 0.0376  922.
    ##  8  0.25    28 0.129 0.0346  2.02 2.30e6 0.0817  245. 1.34  1.56e-5 0.0362 1029.
    ##  9  0.25    29 0.193 0.0469  2.43 1.62e6 0.105   291. 1.37  1.80e-5 0.0253  880.
    ## 10  0.25    30 0.153 0.0403  1.69 2.24e6 0.100   360. 1.49  1.68e-5 0.0327 1053.
    ## # … with 50 more rows, and 13 more variables: rho_p <dbl>, d_p <dbl>,
    ## #   C_pv <dbl>, h <dbl>, I_0 <dbl>, eps_p <dbl>, avg_q <dbl>, avg_T <dbl>,
    ## #   rms_T <dbl>, T_norm <dbl>, pred_fit <dbl>, pred_lwr <dbl>, pred_upr <dbl>
…
