…
<!-- -------------------------------------------------- -->

### **q1** Go to the [Stanford Open Policing Project](https://openpolicing.stanford.edu/data/) page and download the Massachusetts State Police records in `Rds` format. Move the data to your `data` folder and match the `filename` to load the data.

*Note*: An `Rds` file is an R-specific file format. The function
`readRDS` will read these files.

``` r
## TODO: Download the data, move to your data folder, and load it
filename <- NA_character_
df_data <- readRDS("./data/ma_statewide_2020_04_01.rds")
df_data
```

    ## # A tibble: 3,416,238 × 24
    ##    raw_row_nu…¹ date       locat…² count…³ subje…⁴ subje…⁵ subje…⁶ type  arres…⁷
    ##    <chr>        <date>     <chr>   <chr>     <int> <fct>   <fct>   <fct> <lgl>  
    ##  1 1            2007-06-06 MIDDLE… Plymou…      33 white   male    vehi… FALSE  
    ##  2 2            2007-06-07 SEEKONK Bristo…      36 white   male    vehi… FALSE  
    ##  3 3            2007-06-07 MEDFORD Middle…      56 white   female  vehi… FALSE  
    ##  4 4            2007-06-07 MEDFORD Middle…      37 white   male    vehi… FALSE  
    ##  5 5            2007-06-07 EVERETT Middle…      22 hispan… female  vehi… FALSE  
    ##  6 6            2007-06-07 MEDFORD Middle…      34 white   male    vehi… FALSE  
    ##  7 7            2007-06-07 SOMERV… Middle…      54 hispan… male    vehi… FALSE  
    ##  8 8            2007-06-07 HOPKIN… Middle…      31 hispan… female  vehi… FALSE  
    ##  9 9            2007-06-07 SOMERV… Middle…      21 white   male    vehi… FALSE  
    ## 10 10           2007-06-06 BARNST… Barnst…      56 white   male    vehi… FALSE  
    ## # … with 3,416,228 more rows, 15 more variables: citation_issued <lgl>,
    ## #   warning_issued <lgl>, outcome <fct>, contraband_found <lgl>,
    ## #   contraband_drugs <lgl>, contraband_weapons <lgl>, contraband_alcohol <lgl>,
    ## #   contraband_other <lgl>, frisk_performed <lgl>, search_conducted <lgl>,
    ## #   search_basis <fct>, reason_for_stop <chr>, vehicle_type <chr>,
    ## #   vehicle_registration_state <fct>, raw_Race <chr>, and abbreviated variable
    ## #   names ¹​raw_row_number, ²​location, ³​county_name, ⁴​subject_age, …
…
``` r
df_data %>% 
  summarise(raw_Race, subject_race)
```

    ## # A tibble: 3,416,238 × 2
    ##    raw_Race subject_race
    ##    <chr>    <fct>       
    ##  1 white    white       
    ##  2 white    white       
    ##  3 white    white       
    ##  4 white    white       
    ##  5 hispanic hispanic    
    ##  6 white    white       
    ##  7 hispanic hispanic    
    ##  8 hispanic hispanic    
    ##  9 white    white       
    ## 10 white    white       
    ## # … with 3,416,228 more rows
…
    ## `summarise()` has grouped output by 'subject_age'. You can override using the
    ## `.groups` argument.

``` r
totals_added_age
```

    ## # A tibble: 81 × 5
    ## # Groups:   subject_age [81]
    ##    subject_age outcome     n total arrest_rate
    ##          <int> <fct>   <int> <int>       <dbl>
    ##  1          10 arrest      1   398     0.00251
    ##  2          11 arrest      1   397     0.00252
    ##  3          12 arrest      3   262     0.0115 
    ##  4          13 arrest      6   206     0.0291 
    ##  5          14 arrest     15   306     0.0490 
    ##  6          15 arrest     44   474     0.0928 
    ##  7          16 arrest    105  2049     0.0512 
    ##  8          17 arrest    338 17513     0.0193 
    ##  9          18 arrest    940 48909     0.0192 
    ## 10          19 arrest   1667 83065     0.0201 
    ## # … with 71 more rows
…
